[
    {
        "label": "Title",
        "name": "title",
        "type": "text",
        "default": "Title"
    },
    {
        "label": "Sub Title",
        "name": "subTitle",
        "type": "text",
        "default": "Sub Title"
    }
]