{
    "title": "Embedded JS",
    "contentType": "library",
    "majorVersion": 1,
    "minorVersion": 0,
    "patchVersion": 1,
    "runnable": 0,
    "machineName": "EmbeddedJS",
    "author": "Jupiter",
    "license": "MIT",
    "preloadedJs": [
        {
            "path": "js/ejs_production.js"
        },
        {
            "path": "js/ejs_viewhelpers.js"
        }
    ]
}
